tests/fixtures/test.vcd
$comment
TOOL:	simvision(64)	14.10-p001
$end

$date
    Sep 24, 2020 13:17:07
$end

$timescale
    10ps
$end


$scope module /auto/porky/users/krasnuykov_e/28/s1/reseaching/ir_drop_impact_on_timing/s2_l1/voltus/results/dynamic_rail/ALL_100C_dynamic_1/VDD/voltus_rail.tran.ptiavg_674394_worst_voltage:ir_VDD $end
$var real 64 ! /auto/porky/users/krasnuykov_e/28/s1/reseaching/ir_drop_impact_on_timing/s2_l1/voltus/results/dynamic_rail/ALL_100C_dynamic_1/VDD/voltus_rail.tran.ptiavg_674394_worst_voltage:ir_VDD $end
$upscope $end

$enddefinitions $end
#0
$dumpvars
r0.89999813 !
$end
#1
r0.89190298 !
#2
r0.89176983 !
#3
r0.89301193 !
#4
r0.89493388 !
#5
r0.8965261 !
#6
r0.89767933 !
#7
r0.89849031 !
#8
r0.89920145 !
#9
r0.89979434 !
#10
r0.90022504 !
#11
r0.90059036 !
#12
r0.9010666 !
#13
r0.90165246 !
#14
r0.90219563 !
#15
r0.90270466 !
#16
r0.90274197 !
#17
r0.90198487 !
#18
r0.90110797 !
#19
r0.8997072 !
#20
r0.89846218 !
#21
r0.89744121 !
#22
r0.89652967 !
#23
r0.89547706 !
#24
r0.8910929 !
#25
r0.88263774 !
#26
r0.87866235 !
#27
r0.8781746 !
#28
r0.87911654 !
#29
r0.88069654 !
#30
r0.88286579 !
#31
r0.88571966 !
#32
r0.88891423 !
#33
r0.89247632 !
#34
r0.89621663 !
#35
r0.89959222 !
#36
r0.90294075 !
#37
r0.90623111 !
#38
r0.90944934 !
#39
r0.91251725 !
#40
r0.91540498 !
#41
r0.91808742 !
#42
r0.92050743 !
#43
r0.9226048 !
#44
r0.92375392 !
#45
r0.92449355 !
#46
r0.92489374 !
#47
r0.92496985 !
#48
r0.92472941 !
#49
r0.92046696 !
#50
r0.90634733 !
#51
r0.90197414 !
#52
r0.89997768 !
#53
r0.89935553 !
#54
r0.89856857 !
#55
r0.89744264 !
#56
r0.89620286 !
#57
r0.89494771 !
#58
r0.89378005 !
#59
r0.89273715 !
#60
r0.89188427 !
#61
r0.89119649 !
#62
r0.89052939 !
#63
r0.88986415 !
#64
r0.88929963 !
#65
r0.88878232 !
#66
r0.88814306 !
#67
r0.88716698 !
#68
r0.88585985 !
#69
r0.88433516 !
#70
r0.88319379 !
#71
r0.88257033 !
#72
r0.88196635 !
#73
r0.88141364 !
#74
r0.87737662 !
#75
r0.86925709 !
#76
r0.86504149 !
#77
r0.86457843 !
#78
r0.86613399 !
#79
r0.86869967 !
#80
r0.87202013 !
#81
r0.87528068 !
#82
r0.87909049 !
#83
r0.88337421 !
#84
r0.88799536 !
#85
r0.89278269 !
#86
r0.89762652 !
#87
r0.90244097 !
#88
r0.90717351 !
#89
r0.9118098 !
#90
r0.91622609 !
#91
r0.92037618 !
#92
r0.92422205 !
#93
r0.92772788 !
#94
r0.93084794 !
#95
r0.93357682 !
#96
r0.93591684 !
#97
r0.93785566 !
#98
r0.93783128 !
#99
r0.93320924 !
#100
r0.91804737 !
#101
r0.91232067 !
#102
r0.91077995 !
#103
r0.91127509 !
#104
r0.90998679 !
#105
r0.90788656 !
#106
r0.90567082 !
#107
r0.90346044 !
#108
r0.90129966 !
#109
r0.89928728 !
#110
r0.89746892 !
#111
r0.89585459 !
#112
r0.89436531 !
#113
r0.89284438 !
#114
r0.8913734 !
#115
r0.88996255 !
#116
r0.8885169 !
#117
r0.88691539 !
#118
r0.88512611 !
#119
r0.88333756 !
#120
r0.88180965 !
#121
r0.88065875 !
#122
r0.87973613 !
#123
r0.87897623 !
#124
r0.87585872 !
#125
r0.8694272 !
#126
r0.86522877 !
#127
r0.8640644 !
#128
r0.86388928 !
#129
r0.8646788 !
#130
r0.86639845 !
#131
r0.86932236 !
#132
r0.87351394 !
#133
r0.87872595 !
#134
r0.88305777 !
#135
r0.88739324 !
#136
r0.89183921 !
#137
r0.89632738 !
#138
r0.90080786 !
#139
r0.9052301 !
#140
r0.90955395 !
#141
r0.91370368 !
#142
r0.91760755 !
#143
r0.92121559 !
#144
r0.92448294 !
#145
r0.92741805 !
#146
r0.93003488 !
#147
r0.93231308 !
#148
r0.93420184 !
#149
r0.9291597 !
#150
r0.91539866 !
#151
r0.90974647 !
#152
r0.90843344 !
#153
r0.90937978 !
#154
r0.91018003 !
#155
r0.90896362 !
#156
r0.90744847 !
#157
r0.90579224 !
#158
r0.90417063 !
#159
r0.90266979 !
#160
r0.90129912 !
#161
r0.90003872 !
#162
r0.8986389 !
#163
r0.8971588 !
#164
r0.89582157 !
#165
r0.89459461 !
#166
r0.89321923 !
#167
r0.89161873 !
#168
r0.8898707 !
#169
r0.88814628 !
#170
r0.88668346 !
#171
r0.88547069 !
#172
r0.88421965 !
#173
r0.88205427 !
#174
r0.8767491 !
#175
r0.86891699 !
#176
r0.86322594 !
#177
r0.86083847 !
#178
r0.86071503 !
#179
r0.86200118 !
#180
r0.86457765 !
#181
r0.86794323 !
#182
r0.87236702 !
#183
r0.87789774 !
#184
r0.88338655 !
#185
r0.88730365 !
#186
r0.89141363 !
#187
r0.89561212 !
#188
r0.89983249 !
#189
r0.90401572 !
#190
r0.90810782 !
#191
r0.91206861 !
#192
r0.91581267 !
#193
r0.91930252 !
#194
r0.92248976 !
#195
r0.92536283 !
#196
r0.92791742 !
#197
r0.9301343 !
#198
r0.93195993 !
#199
r0.92620999 !
#200
r0.91147751 !
#201
r0.90706933 !
#202
r0.90617645 !
#203
r0.90690547 !
#204
r0.90782893 !
#205
r0.90802807 !
#206
r0.90679789 !
#207
r0.9049868 !
#208
r0.90323484 !
#209
r0.9016006 !
#210
r0.90013397 !
#211
r0.89881504 !
#212
r0.89754295 !
#213
r0.89620787 !
#214
r0.89492536 !
#215
r0.89371741 !
#216
r0.89243132 !
#217
r0.89089227 !
#218
r0.8891902 !
#219
r0.88748306 !
#220
r0.885988 !
#221
r0.88482845 !
#222
r0.88392293 !
#223
r0.88299859 !
#224
r0.87881213 !
#225
r0.87008989 !
#226
r0.86562568 !
#227
r0.86449534 !
#228
r0.8651545 !
#229
r0.86693698 !
#230
r0.86944222 !
#231
r0.87261593 !
#232
r0.87641531 !
#233
r0.88072157 !
#234
r0.88537294 !
#235
r0.89014775 !
#236
r0.89490813 !
#237
r0.89958209 !
#238
r0.90413344 !
#239
r0.90853584 !
#240
r0.91276515 !
#241
r0.91674668 !
#242
r0.92044729 !
#243
r0.92382109 !
#244
r0.92683005 !
#245
r0.92948979 !
#246
r0.93182254 !
#247
r0.93267697 !
#248
r0.93288863 !
#249
r0.92876387 !
#250
r0.91443098 !
#251
r0.90894508 !
#252
r0.90803343 !
#253
r0.90743631 !
#254
r0.90665507 !
#255
r0.90546203 !
#256
r0.90409988 !
#257
r0.90269536 !
#258
r0.90134925 !
#259
r0.90011615 !
#260
r0.89893568 !
#261
r0.89780194 !
#262
r0.89646125 !
#263
r0.89507473 !
#264
r0.89376557 !
#265
r0.89260387 !
#266
r0.89132667 !
#267
r0.88984591 !
#268
r0.88824338 !
#269
r0.88662273 !
#270
r0.88535267 !
#271
r0.88436228 !
#272
r0.88338798 !
#273
r0.88246298 !
#274
r0.87872243 !
#275
r0.87026763 !
#276
r0.86590832 !
#277
r0.86537468 !
#278
r0.86599749 !
#279
r0.86753851 !
#280
r0.8698281 !
#281
r0.87274218 !
#282
r0.87626624 !
#283
r0.88032031 !
#284
r0.88469678 !
#285
r0.88921219 !
#286
r0.89374465 !
#287
r0.89821595 !
#288
r0.90259004 !
#289
r0.90684009 !
#290
r0.91096187 !
#291
r0.91486567 !
#292
r0.91851556 !
#293
r0.92188156 !
#294
r0.92492127 !
#295
r0.92762923 !
#296
r0.93000585 !
#297
r0.9319973 !
#298
r0.93230772 !
#299
r0.92775935 !
#300
r0.912893 !
#301
r0.90815073 !
#302
r0.90688539 !
#303
r0.90757257 !
#304
r0.90751886 !
#305
r0.90601224 !
#306
r0.90434867 !
#307
r0.90268594 !
#308
r0.90112001 !
#309
r0.89972693 !
#310
r0.89854568 !
#311
r0.89752352 !
#312
r0.89655411 !
#313
r0.89546394 !
#314
r0.89446956 !
#315
r0.89364439 !
#316
r0.89288771 !
#317
r0.89203101 !
#318
r0.89100283 !
#319
r0.89000368 !
#320
r0.88924813 !
#321
r0.88877279 !
#322
r0.8884508 !
#323
r0.88817608 !
#324
r0.88518327 !
#325
r0.87807 !
#326
r0.87417132 !
#327
r0.87370121 !
#328
r0.87479609 !
#329
r0.87623996 !
#330
r0.878308 !
#331
r0.88115036 !
#332
r0.88448203 !
#333
r0.8876695 !
#334
r0.89106208 !
#335
r0.89455074 !
#336
r0.89803922 !
#337
r0.90145904 !
#338
r0.90478635 !
#339
r0.90800703 !
#340
r0.91106552 !
#341
r0.91393417 !
#342
r0.91658634 !
#343
r0.9189862 !
#344
r0.92110246 !
#345
r0.92291462 !
#346
r0.92380601 !
#347
r0.92417318 !
#348
r0.92422992 !
#349
r0.92004126 !
#350
r0.9053039 !
#351
r0.90173692 !
#352
r0.90060323 !
#353
r0.90033913 !
#354
r0.89991313 !
#355
r0.89911163 !
#356
r0.89820576 !
#357
r0.8973158 !
#358
r0.89652824 !
#359
r0.89586759 !
#360
r0.89539504 !
#361
r0.89511257 !
#362
r0.89482379 !
#363
r0.89449787 !
#364
r0.89427525 !
#365
r0.89422184 !
#366
r0.89417911 !
#367
r0.89400029 !
#368
r0.89345515 !
#369
r0.89280671 !
#370
r0.89232099 !
#371
r0.8921544 !
#372
r0.8921175 !
#373
r0.89218706 !
#374
r0.88861167 !
#375
r0.88017797 !
#376
r0.87629569 !
#377
r0.87608498 !
#378
r0.87758678 !
#379
r0.87971491 !
#380
r0.88169581 !
#381
r0.88423306 !
#382
r0.88689935 !
#383
r0.88989961 !
#384
r0.89311016 !
#385
r0.89637977 !
#386
r0.89962679 !
#387
r0.90278029 !
#388
r0.90583575 !
#389
r0.90879101 !
#390
r0.91158903 !
#391
r0.91420972 !
#392
r0.91662967 !
#393
r0.91882658 !
#394
r0.92076534 !
#395
r0.92244869 !
#396
r0.92337132 !
#397
r0.92357248 !
#398
r0.92347866 !
#399
r0.91933948 !
#400
r0.9037779 !
#401
r0.90127623 !
#402
r0.89863932 !
#403
r0.89864242 !
#404
r0.89898026 !
#405
r0.89818841 !
#406
r0.89692169 !
#407
r0.89578497 !
#408
r0.89480662 !
#409
r0.8939153 !
#410
r0.89313066 !
#411
r0.89246058 !
#412
r0.89179999 !
#413
r0.89104694 !
#414
r0.89041346 !
#415
r0.8898952 !
#416
r0.88936299 !
#417
r0.88854682 !
#418
r0.88740468 !
#419
r0.88623947 !
#420
r0.88521862 !
#421
r0.8841815 !
#422
r0.88277227 !
#423
r0.88109565 !
#424
r0.87724406 !
#425
r0.87120724 !
#426
r0.86708272 !
#427
r0.8656829 !
#428
r0.86620754 !
#429
r0.86800218 !
#430
r0.87081081 !
#431
r0.87480754 !
#432
r0.87984985 !
#433
r0.8854149 !
#434
r0.8903026 !
#435
r0.89449584 !
#436
r0.89875704 !
#437
r0.90301085 !
#438
r0.9072172 !
#439
r0.91133851 !
#440
r0.91527349 !
#441
r0.91897959 !
#442
r0.92241603 !
#443
r0.92553347 !
#444
r0.92828959 !
#445
r0.93069631 !
#446
r0.93277222 !
#447
r0.93439865 !
#448
r0.93556619 !
#449
r0.92992926 !
#450
r0.9156217 !
#451
r0.90956259 !
#452
r0.90800601 !
#453
r0.90862548 !
#454
r0.90799522 !
#455
r0.90634048 !
#456
r0.90451539 !
#457
r0.90268064 !
#458
r0.90091258 !
#459
r0.89928371 !
#460
r0.89782202 !
#461
r0.89644641 !
#462
r0.894979 !
#463
r0.89344555 !
#464
r0.89196831 !
#465
r0.89045823 !
#466
r0.88888389 !
#467
r0.88731945 !
#468
r0.88571209 !
#469
r0.88414341 !
#470
r0.8829326 !
#471
r0.88204825 !
#472
r0.88093287 !
#473
r0.8787815 !
#474
r0.8732754 !
#475
r0.86538345 !
#476
r0.85972738 !
#477
r0.85733902 !
#478
r0.85725403 !
#479
r0.85870945 !
#480
r0.86162233 !
#481
r0.86565048 !
#482
r0.87058485 !
#483
r0.87651074 !
#484
r0.88269222 !
#485
r0.88673705 !
#486
r0.89092064 !
#487
r0.89520144 !
#488
r0.89951837 !
#489
r0.9038223 !
#490
r0.90805441 !
#491
r0.91216689 !
#492
r0.91607273 !
#493
r0.91972977 !
#494
r0.9230817 !
#495
r0.92611271 !
#496
r0.92881465 !
#497
r0.93116593 !
#498
r0.93311131 !
#499
r0.9275136 !
#500
r0.91299337 !
#501
r0.90840334 !
#502
r0.90761238 !
#503
r0.90833652 !
#504
r0.90932983 !
#505
r0.90965402 !
#506
r0.9094978 !
#507
r0.90805435 !
#508
r0.90622824 !
#509
r0.9045049 !
#510
r0.90293068 !
#511
r0.90153575 !
#512
r0.90024972 !
#513
r0.89896446 !
#514
r0.89777297 !
#515
r0.89665216 !
#516
r0.89549863 !
#517
r0.89429265 !
#518
r0.89309931 !
#519
r0.89202422 !
#520
r0.89120138 !
#521
r0.89061546 !
#522
r0.8901009 !
#523
r0.88951516 !
#524
r0.88600606 !
#525
r0.87906355 !
#526
r0.87473387 !
#527
r0.87384421 !
#528
r0.87469852 !
#529
r0.87631238 !
#530
r0.87833989 !
#531
r0.88069165 !
#532
r0.88328111 !
#533
r0.88610381 !
#534
r0.88911152 !
#535
r0.89220375 !
#536
r0.8953197 !
#537
r0.89840508 !
#538
r0.90143865 !
#539
r0.90439492 !
#540
r0.90725398 !
#541
r0.90996706 !
#542
r0.9125033 !
#543
r0.91482693 !
#544
r0.91690755 !
#545
r0.91871923 !
#546
r0.9202947 !
#547
r0.9214713 !
#548
r0.92174906 !
#549
r0.9167037 !
#550
r0.90217876 !
#551
r0.90008116 !
#552
r0.89805305 !
#553
r0.89878893 !
#554
r0.89934886 !
#555
r0.89893216 !
#556
r0.89837569 !
#557
r0.89779103 !
#558
r0.89723867 !
#559
r0.89678752 !
#560
r0.89652246 !
#561
r0.89645666 !
#562
r0.89639175 !
#563
r0.89619654 !
#564
r0.89592201 !
#565
r0.89564347 !
#566
r0.89530534 !
#567
r0.89486247 !
#568
r0.89439267 !
#569
r0.89394695 !
#570
r0.89371169 !
#571
r0.89372772 !
#572
r0.89380944 !
#573
r0.89381808 !
#574
r0.89040732 !
#575
r0.88227421 !
#576
r0.87854701 !
#577
r0.87840444 !
#578
r0.87997133 !
#579
r0.88195473 !
#580
r0.88409805 !
#581
r0.88655514 !
#582
r0.88926864 !
#583
r0.89218557 !
#584
r0.89524305 !
#585
r0.89832234 !
#586
r0.90135241 !
#587
r0.90428382 !
#588
r0.90712476 !
#589
r0.90984392 !
#590
r0.91239947 !
#591
r0.91477203 !
#592
r0.91694152 !
#593
r0.91889024 !
#594
r0.92058372 !
#595
r0.92182237 !
#596
r0.92212552 !
#597
r0.92215437 !
#598
r0.9219141 !
#599
r0.91783613 !
#600
r0.90278679 !
#601
r0.90034193 !
#602
r0.89799106 !
#603
r0.89804739 !
#604
r0.89848 !
#605
r0.89785236 !
#606
r0.89699477 !
#607
r0.89623648 !
#608
r0.89554977 !
#609
r0.89493674 !
#610
r0.89445037 !
#611
r0.89407551 !
#612
r0.89366072 !
#613
r0.89315957 !
#614
r0.89270467 !
#615
r0.89237094 !
#616
r0.8920964 !
#617
r0.89171153 !
#618
r0.89126551 !
#619
r0.89093173 !
#620
r0.89086205 !
#621
r0.89118612 !
#622
r0.89173508 !
#623
r0.89224619 !
#624
r0.88837957 !
#625
r0.87958038 !
#626
r0.87545675 !
#627
r0.87525588 !
#628
r0.87678272 !
#629
r0.87909997 !
#630
r0.88183075 !
#631
r0.88482881 !
#632
r0.88797647 !
#633
r0.89122391 !
#634
r0.89454389 !
#635
r0.89787966 !
#636
r0.90117675 !
#637
r0.90437216 !
#638
r0.90745169 !
#639
r0.91038752 !
#640
r0.91313946 !
#641
r0.91568851 !
#642
r0.91801167 !
#643
r0.92007685 !
#644
r0.92181814 !
#645
r0.92266804 !
#646
r0.92301375 !
#647
r0.92307442 !
#648
r0.92285383 !
#649
r0.91847515 !
#650
r0.90424562 !
#651
r0.90097857 !
#652
r0.89988893 !
#653
r0.89966345 !
#654
r0.89946163 !
#655
r0.89898777 !
#656
r0.89846128 !
#657
r0.89797068 !
#658
r0.8975237 !
#659
r0.8971411 !
#660
r0.8967995 !
#661
r0.89646804 !
#662
r0.89604264 !
#663
r0.89555323 !
#664
r0.89513862 !
#665
r0.89483005 !
#666
r0.8945933 !
#667
r0.89439738 !
#668
r0.89409572 !
#669
r0.8936913 !
#670
r0.89334685 !
#671
r0.89314759 !
#672
r0.89312923 !
#673
r0.8931191 !
#674
r0.88893628 !
#675
r0.88026607 !
#676
r0.87624305 !
#677
r0.87591064 !
#678
r0.87734455 !
#679
r0.87932146 !
#680
r0.88130796 !
#681
r0.88381213 !
#682
r0.88658673 !
#683
r0.88936007 !
#684
r0.89225417 !
#685
r0.89520264 !
#686
r0.89814001 !
#687
r0.90101236 !
#688
r0.90380579 !
#689
r0.90651226 !
#690
r0.90910506 !
#691
r0.91154534 !
#692
r0.91381115 !
#693
r0.91588265 !
#694
r0.91768122 !
#695
r0.91922426 !
#696
r0.92054015 !
#697
r0.92084068 !
#698
r0.92087775 !
#699
r0.91632432 !
#700
r0.90103149 !
#701
r0.89905483 !
#702
r0.89680874 !
#703
r0.89715523 !
#704
r0.89783633 !
#705
r0.89775658 !
#706
r0.89676476 !
#707
r0.89585567 !
#708
r0.89506334 !
#709
r0.89443457 !
#710
r0.89396727 !
#711
r0.89359415 !
#712
r0.893255 !
#713
r0.8929013 !
#714
r0.89253843 !
#715
r0.89203733 !
#716
r0.89126468 !
#717
r0.89018017 !
#718
r0.88894439 !
#719
r0.88788319 !
#720
r0.88721848 !
#721
r0.88687903 !
#722
r0.88672823 !
#723
r0.88644123 !
#724
r0.88268608 !
#725
r0.87516916 !
#726
r0.87168747 !
#727
r0.87180167 !
#728
r0.87349415 !
#729
r0.87589723 !
#730
r0.87863779 !
#731
r0.88168395 !
#732
r0.88514298 !
#733
r0.88899624 !
#734
r0.89307731 !
#735
r0.89722943 !
#736
r0.90136909 !
#737
r0.90542692 !
#738
r0.90937954 !
#739
r0.91316563 !
#740
r0.91672635 !
#741
r0.92003089 !
#742
r0.92305142 !
#743
r0.92574835 !
#744
r0.92808819 !
#745
r0.9300912 !
#746
r0.93098843 !
#747
r0.93104386 !
#748
r0.93072587 !
#749
r0.92624444 !
#750
r0.91180623 !
#751
r0.90610677 !
#752
r0.90458745 !
#753
r0.90373594 !
#754
r0.90275621 !
#755
r0.90131515 !
#756
r0.89971501 !
#757
r0.89807355 !
#758
r0.89653677 !
#759
r0.89515948 !
#760
r0.8939929 !
#761
r0.89298749 !
#762
r0.8919661 !
#763
r0.89094383 !
#764
r0.89002836 !
#765
r0.88915747 !
#766
r0.88804913 !
#767
r0.88670677 !
#768
r0.88516533 !
#769
r0.88355756 !
#770
r0.88223982 !
#771
r0.8813476 !
#772
r0.88065559 !
#773
r0.87994093 !
#774
r0.87615532 !
#775
r0.86830044 !
#776
r0.86406869 !
#777
r0.86360836 !
#778
r0.86516541 !
#779
r0.86773521 !
#780
r0.8710342 !
#781
r0.87433225 !
#782
r0.87790781 !
#783
r0.88198358 !
#784
r0.88640726 !
#785
r0.89101613 !
#786
r0.89570588 !
#787
r0.90037423 !
#788
r0.90496641 !
#789
r0.9094429 !
#790
r0.91374767 !
#791
r0.91780305 !
#792
r0.92157543 !
#793
r0.92503136 !
#794
r0.92812604 !
#795
r0.9308539 !
#796
r0.93321645 !
#797
r0.93520069 !
#798
r0.93604046 !
#799
r0.93072623 !
#800
r0.91572332 !
#801
r0.91040802 !
#802
r0.90937519 !
#803
r0.90995115 !
#804
r0.90932041 !
#805
r0.90741879 !
#806
r0.90539134 !
#807
r0.90335572 !
#808
r0.90136254 !
#809
r0.89950681 !
#810
r0.89784801 !
#811
r0.89638573 !
#812
r0.89503908 !
#813
r0.89365059 !
#814
r0.89229792 !
#815
r0.8909865 !
#816
r0.88961923 !
#817
r0.8880744 !
#818
r0.88630134 !
#819
r0.88452238 !
#820
r0.88298875 !
#821
r0.88181186 !
#822
r0.88088822 !
#823
r0.88007379 !
#824
r0.8768785 !
#825
r0.86933845 !
#826
r0.86423564 !
#827
r0.86289263 !
#828
r0.86331123 !
#829
r0.86484253 !
#830
r0.86709774 !
#831
r0.87004471 !
#832
r0.87368953 !
#833
r0.87789619 !
#834
r0.88246477 !
#835
r0.88720208 !
#836
r0.89199543 !
#837
r0.89676225 !
#838
r0.90146136 !
#839
r0.90605319 !
#840
r0.91051447 !
#841
r0.91475409 !
#842
r0.91872418 !
#843
r0.92237896 !
#844
r0.92567652 !
#845
r0.92862773 !
#846
r0.93124837 !
#847
r0.9335199 !
#848
r0.93536687 !
#849
r0.93024218 !
#850
r0.91615832 !
#851
r0.91073704 !
#852
r0.90988487 !
#853
r0.91055763 !
#854
r0.9098509 !
#855
r0.90864581 !
#856
r0.90713978 !
#857
r0.90548044 !
#858
r0.90384549 !
#859
r0.9023279 !
#860
r0.90093857 !
#861
r0.89966476 !
#862
r0.8982203 !
#863
r0.89673269 !
#864
r0.89538401 !
#865
r0.89414346 !
#866
r0.89278257 !
#867
r0.89118177 !
#868
r0.88943964 !
#869
r0.88768631 !
#870
r0.88617039 !
#871
r0.88486558 !
#872
r0.88349563 !
#873
r0.88131326 !
#874
r0.8761493 !
#875
r0.86859697 !
#876
r0.86321789 !
#877
r0.86104584 !
#878
r0.86097419 !
#879
r0.86211801 !
#880
r0.86405718 !
#881
r0.86700797 !
#882
r0.87131268 !
#883
r0.87678063 !
#884
r0.88114041 !
#885
r0.8855443 !
#886
r0.89009219 !
#887
r0.89468175 !
#888
r0.89925474 !
#889
r0.90376079 !
#890
r0.90815032 !
#891
r0.91239321 !
#892
r0.91639721 !
#893
r0.92012841 !
#894
r0.92353958 !
#895
r0.92661935 !
#896
r0.92936337 !
#897
r0.93175197 !
#898
r0.93373138 !
#899
r0.92811292 !
#900
r0.91349822 !
#901
r0.90887487 !
#902
r0.90781516 !
#903
r0.90863943 !
#904
r0.90960711 !
#905
r0.9097718 !
#906
r0.90795028 !
#907
r0.90608907 !
#908
r0.90427035 !
#909
r0.90256393 !
#910
r0.90102023 !
#911
r0.89962083 !
#912
r0.89825934 !
#913
r0.89684403 !
#914
r0.89547592 !
#915
r0.89418209 !
#916
r0.89279991 !
#917
r0.89114982 !
#918
r0.88933164 !
#919
r0.88752353 !
#920
r0.88595074 !
#921
r0.88474143 !
#922
r0.88381273 !
#923
r0.88289726 !
#924
r0.87949187 !
#925
r0.87156951 !
#926
r0.86725008 !
#927
r0.86664265 !
#928
r0.86776686 !
#929
r0.86982787 !
#930
r0.87236345 !
#931
r0.87530148 !
#932
r0.87870699 !
#933
r0.8825472 !
#934
r0.88671541 !
#935
r0.89105827 !
#936
r0.8954401 !
#937
r0.89977664 !
#938
r0.9040246 !
#939
r0.90814871 !
#940
r0.91211879 !
#941
r0.91586095 !
#942
r0.91934383 !
#943
r0.92252135 !
#944
r0.92535543 !
#945
r0.92786163 !
#946
r0.93006223 !
#947
r0.93104863 !
#948
r0.93125248 !
#949
r0.92718285 !
#950
r0.91265363 !
#951
r0.90735376 !
#952
r0.90662026 !
#953
r0.9060446 !
#954
r0.90531754 !
#955
r0.90419871 !
#956
r0.9029246 !
#957
r0.90161932 !
#958
r0.90038365 !
#959
r0.89927864 !
#960
r0.89824116 !
#961
r0.89723611 !
#962
r0.8960492 !
#963
r0.89481813 !
#964
r0.89366233 !
#965
r0.89264584 !
#966
r0.89154798 !
#967
r0.89019501 !
#968
r0.88873029 !
#969
r0.88726097 !
#970
r0.88615578 !
#971
r0.88534647 !
#972
r0.88456422 !
#973
r0.88383597 !
#974
r0.88043267 !
#975
r0.87217563 !
#976
r0.86806619 !
#977
r0.86778492 !
#978
r0.86934906 !
#979
r0.87172544 !
#980
r0.87413013 !
#981
r0.87698722 !
#982
r0.88012207 !
#983
r0.88372016 !
#984
r0.88766551 !
#985
r0.89178246 !
#986
r0.89595222 !
#987
r0.9000718 !
#988
r0.90410298 !
#989
r0.90802026 !
#990
r0.91180158 !
#991
r0.91537142 !
#992
r0.91869688 !
#993
r0.92174935 !
#994
r0.92448795 !
#995
r0.92690915 !
#996
r0.9290154 !
#997
r0.93048644 !
#998
r0.93060762 !
#999
r0.9303695 !
